name="IV Fork"
tags={
	"Idea groups"
	"Ideas"
	"Policies"
	"Tech"
	"Balancing"
}
picture="thumbnail.png"
version="1.33.*"
supported_version="1.33.*"
path="C:/Users/milbu/Documents/Paradox Interactive/Europa Universalis IV/mod/Idea Variation"
remote_file_id="604203692"