#############################################################
####### General Start
#############################################################

edict_religious_unity = {
	potential = {
		NOT = {
			has_idea = administrative_efficiency_idea 
		}
		NOT = {
		FROM = {
		
		any_province_in_state = {
		OR = {
		has_building = town_hall
		has_building = government_lvl_3
		has_building = government_lvl_4
		}
		}
		}
		
		}
	}
	
	allow = {
		
	
		always = yes
		
	
	}
	
	modifier = {
		local_missionary_strength = 0.01
	}
	
	color = { 117 38 143 }
	
	ai_will_do = {
		factor = 100
		modifier = {
			factor = 0
			all_province_in_state = {
				has_missionary = no
			}
		}
		modifier = {
			factor = 3
			all_province_in_state = {
				has_missionary = yes
			}
		}
	}
}

edict_religious_unity_2 = {
	potential = {
		NOT = {
			has_idea = administrative_efficiency_idea 
		}
		FROM = {
		
		any_province_in_state = {
		OR = {
		has_building = courthouse
		has_building = town_hall
		}
		}
		}
	
		
	}
	
	allow = {
		FROM = {
		
		any_province_in_state = {
		has_building = town_hall
		}
		}
		
	}
	
	modifier = {
		local_missionary_strength = 0.015
	}
	
	color = { 117 38 143 }
	
	ai_will_do = {
		factor = 100
		modifier = {
			factor = 0
			all_province_in_state = {
				has_missionary = no
			}
		}
		modifier = {
			factor = 3
			all_province_in_state = {
				has_missionary = yes
			}
		}
	}
}

edict_religious_unity_3 = {
	potential = {
		NOT = {
			has_idea = administrative_efficiency_idea 
		}
		FROM = {
		any_province_in_state = {
		
		has_building = government_lvl_3
		}
		}
	}
		
	
	
	allow = {

		FROM = {
		any_province_in_state = {
		has_building = government_lvl_3
		}
		}
		
		
	}
	
	modifier = {
		local_missionary_strength = 0.02
	}
	
	color = { 117 38 143 }
	
	ai_will_do = {
		factor = 100
		modifier = {
			factor = 0
			all_province_in_state = {
				has_missionary = no
			}
		}
		modifier = {
			factor = 3
			all_province_in_state = {
				has_missionary = yes
			}
		}
	}
}

edict_religious_unity_4 = {
	potential = {
		NOT = {
			has_idea = administrative_efficiency_idea 
		}
		FROM = {
		any_province_in_state = {
		
		has_building = government_lvl_4
		}
		}
	}
	
	allow = {
		FROM = {
		any_province_in_state = {
		has_building = government_lvl_4
		}
		}
	}
	
	modifier = {
		local_missionary_strength = 0.025
	}
	
	color = { 117 38 143 }
	
	ai_will_do = {
		factor = 100
		modifier = {
			factor = 0
			all_province_in_state = {
				has_missionary = no
			}
		}
		modifier = {
			factor = 3
			all_province_in_state = {
				has_missionary = yes
			}
		}
	}
}

#############################################################
####### General End
#############################################################

#############################################################
####### Special Start
#############################################################

edict_special_religious_unity_1 = {
	potential = {
		has_idea = administrative_efficiency_idea 
		NOT = {
		FROM = {
		
		any_province_in_state = {
		OR = {
		has_building = town_hall
		has_building = government_lvl_3
		has_building = government_lvl_4
		}
		}
		}
		
		}
	}
	
	allow = {
		
	
		always = yes
		
	
	}
	
	modifier = {
		local_missionary_strength = 0.01
		local_state_maintenance_modifier = -0.75
	}
	
	color = { 117 38 143 }
	
	ai_will_do = {
		factor = 100
		modifier = {
			factor = 0
			all_province_in_state = {
				has_missionary = no
			}
		}
		modifier = {
			factor = 3
			all_province_in_state = {
				has_missionary = yes
			}
		}
	}
}

edict_special_religious_unity_2 = {
	potential = {
		has_idea = administrative_efficiency_idea 
		FROM = {
		
		any_province_in_state = {
		OR = {
		has_building = courthouse
		has_building = town_hall
		}
		}
		}
	
		
	}
	
	allow = {
		FROM = {
		
		any_province_in_state = {
		has_building = town_hall
		}
		}
		
	}
	
	modifier = {
		local_missionary_strength = 0.015
		local_state_maintenance_modifier = -0.75
	}
	
	color = { 117 38 143 }
	
	ai_will_do = {
		factor = 100
		modifier = {
			factor = 0
			all_province_in_state = {
				has_missionary = no
			}
		}
		modifier = {
			factor = 3
			all_province_in_state = {
				has_missionary = yes
			}
		}
	}
}

edict_special_religious_unity_3 = {
	potential = {
		has_idea = administrative_efficiency_idea 
		FROM = {
		any_province_in_state = {
		
		has_building = government_lvl_3
		}
		}
	}
		
	
	
	allow = {

		FROM = {
		any_province_in_state = {
		has_building = government_lvl_3
		}
		}
		
		
	}
	
	modifier = {
		local_missionary_strength = 0.02
		local_state_maintenance_modifier = -0.75
	}
	
	color = { 117 38 143 }
	
	ai_will_do = {
		factor = 100
		modifier = {
			factor = 0
			all_province_in_state = {
				has_missionary = no
			}
		}
		modifier = {
			factor = 3
			all_province_in_state = {
				has_missionary = yes
			}
		}
	}
}

edict_special_religious_unity_4 = {
	potential = {
		has_idea = administrative_efficiency_idea 
		FROM = {
		any_province_in_state = {
		
		has_building = government_lvl_4
		}
		}
	}
	
	allow = {
		FROM = {
		any_province_in_state = {
		has_building = government_lvl_4
		}
		}
	}
	
	modifier = {
		local_missionary_strength = 0.025
		local_state_maintenance_modifier = -0.75
	}
	
	color = { 117 38 143 }
	
	ai_will_do = {
		factor = 100
		modifier = {
			factor = 0
			all_province_in_state = {
				has_missionary = no
			}
		}
		modifier = {
			factor = 3
			all_province_in_state = {
				has_missionary = yes
			}
		}
	}
}

#############################################################
#######  Special End
#############################################################