#age_absolu_age_1 = {
#	potential = {
#		current_age = age_of_discovery
#	}
#	trigger = {
#		current_age = age_of_discovery
#	}
#	max_absolutism = -60
#}

#age_absolu_age_2 = {
#	potential = {
#		current_age = age_of_reformation
#	}
#	trigger = {
#		current_age = age_of_reformation
#	}
#	max_absolutism = -50
#}


iv_gov_militarisation_war = {
	potential = {
		has_reform = prussian_monarchy
	}
	trigger = {
		has_reform = prussian_monarchy
		is_at_war = yes
	}
	monthly_militarized_society = 2.00
}

iv_gov_militarisation_nowar = {
	potential = {
		has_reform = prussian_monarchy
	}
	trigger = {
		has_reform = prussian_monarchy
		is_at_war = no
	}
	monthly_militarized_society = -1.00
}

######################################
# Counter Revolution
######################################
counter_revolution = {
	potential = {
		revolution_target_exists = yes
		is_revolution_target = no
		NOT = {
		has_iv_gov_reform_vision_1 = yes
		}
	}

	trigger = {
		capital_scope = { continent = europe }
		revolution_target_exists = yes
		is_revolution_target = no
		is_free_or_tributary_trigger = yes
		NOT = {
			revolution_target = {
				war_with = ROOT
			}
			revolution_target = {
				truce_with = ROOT
			} 
		}
		NOT = {
		has_iv_gov_reform_vision_1 = yes
		}
		government = monarchy
	}

	prestige = -5
	stability_cost_modifier = 0.3
	global_unrest = 5
}



######################################
# Reaction
######################################
reaction = {
	potential = {
		revolution_target_exists = yes
		capital_scope = { continent = europe }
		NOT = {
		has_iv_gov_reform_vision_1 = yes
		}
	}

	trigger = {
		capital_scope = { continent = europe }
		revolution_target_exists = yes
		is_revolution_target = no
		is_free_or_tributary_trigger = yes
		government = monarchy
		revolution_target = {
			war_with = ROOT
		}
		NOT = {
		has_iv_gov_reform_vision_1 = yes
		}	

	}

	prestige = 10
	stability_cost_modifier = -0.1
	global_unrest = -10
}


iv_gov_vision_not_target = {

	potential = {
		revolution_target_exists = yes
		is_revolution_target = no
		has_iv_gov_reform_vision_1 = yes
		
	}
	trigger = {
		revolution_target_exists = yes
		is_revolution_target = no
		has_iv_gov_reform_vision_1 = yes
	}
	land_morale = 0.1
	prestige = 3

}


iv_monument_cost_1 = {

	potential = {
		ai = no
		any_owned_province = { 
		has_construction = monument
		}
		NOT = {
		calc_true_if = {
		all_owned_province = { 
		has_construction = monument
		}
		amount = 2
		}
		}
	}
	trigger = {
		any_owned_province = { 
		has_construction = monument
		}
		NOT = {
		calc_true_if = {
		all_owned_province = { 
		has_construction = monument
		}
		amount = 2
		}
		}
	}
	
	global_tax_modifier = -0.1
	production_efficiency = -0.1
	trade_efficiency = -0.1

}

iv_monument_cost_2 = {

	potential = {
		ai = no
		calc_true_if = {
		all_owned_province = { 
		has_construction = monument
		}
		amount = 2
		}
		
		NOT = {
		calc_true_if = {
		all_owned_province = { 
		has_construction = monument
		}
		amount = 3
		}
		}

	}
	trigger = {
		calc_true_if = {
		all_owned_province = { 
		has_construction = monument
		}
		amount = 2
		}
		
		NOT = {
		calc_true_if = {
		all_owned_province = { 
		has_construction = monument
		}
		amount = 3
		}
		}
	}
	
	global_tax_modifier = -0.25
	production_efficiency = -0.25
	trade_efficiency = -0.25

}

iv_monument_cost_3 = {

	potential = {
		ai = no
		calc_true_if = {
		all_owned_province = { 
		has_construction = monument
		}
		amount = 3
		}
		
		NOT = {
		calc_true_if = {
		all_owned_province = { 
		has_construction = monument
		}
		amount = 4
		}
		}

	}
	trigger = {
		calc_true_if = {
		all_owned_province = { 
		has_construction = monument
		}
		amount = 3
		}
		
		NOT = {
		calc_true_if = {
		all_owned_province = { 
		has_construction = monument
		}
		amount = 4
		}
		}
	}
	
	global_tax_modifier = -0.5
	production_efficiency = -0.5
	trade_efficiency = -0.5
	all_power_cost = 0.05

}

iv_monument_cost_4 = {

	potential = {
		ai = no
		calc_true_if = {
		all_owned_province = { 
		has_construction = monument
		}
		amount = 4
		}
		
		NOT = {
		calc_true_if = {
		all_owned_province = { 
		has_construction = monument
		}
		amount = 5
		}
		}

	}
	trigger = {
		calc_true_if = {
		all_owned_province = { 
		has_construction = monument
		}
		amount = 4
		}
		
		NOT = {
		calc_true_if = {
		all_owned_province = { 
		has_construction = monument
		}
		amount = 5
		}
		}
	}
	
	global_tax_modifier = -0.75
	production_efficiency = -0.75
	trade_efficiency = -0.75
	all_power_cost = 0.1

}

iv_monument_cost_5 = {

	potential = {
		ai = no
		calc_true_if = {
		all_owned_province = { 
		has_construction = monument
		}
		amount = 5
		}
		
		NOT = {
		calc_true_if = {
		all_owned_province = { 
		has_construction = monument
		}
		amount = 6
		}
		}

	}
	trigger = {
		calc_true_if = {
		all_owned_province = { 
		has_construction = monument
		}
		amount = 5
		}
		
		NOT = {
		calc_true_if = {
		all_owned_province = { 
		has_construction = monument
		}
		amount = 6
		}
		}
	}
	
	global_tax_modifier = -1.0
	production_efficiency = -1.0
	trade_efficiency = -1.0
	all_power_cost = 0.15

}

iv_monument_cost_6 = {

	potential = {
		ai = no
		calc_true_if = {
		all_owned_province = { 
		has_construction = monument
		}
		amount = 6
		}
		
		NOT = {
		calc_true_if = {
		all_owned_province = { 
		has_construction = monument
		}
		amount = 7
		}
		}

	}
	trigger = {
		calc_true_if = {
		all_owned_province = { 
		has_construction = monument
		}
		amount = 6
		}
		
		NOT = {
		calc_true_if = {
		all_owned_province = { 
		has_construction = monument
		}
		amount = 7
		}
		}
	}
	
	global_tax_modifier = -1.25
	production_efficiency = -1.25
	trade_efficiency = -1.25
	all_power_cost = 0.20

}

iv_monument_cost_7 = {

	potential = {
		ai = no
		calc_true_if = {
		all_owned_province = { 
		has_construction = monument
		}
		amount = 7
		}
		
		NOT = {
		calc_true_if = {
		all_owned_province = { 
		has_construction = monument
		}
		amount = 8
		}
		}

	}
	trigger = {
		calc_true_if = {
		all_owned_province = { 
		has_construction = monument
		}
		amount = 7
		}
		
		NOT = {
		calc_true_if = {
		all_owned_province = { 
		has_construction = monument
		}
		amount = 8
		}
		}
	}
	
	global_tax_modifier = -1.5
	production_efficiency = -1.5
	trade_efficiency = -1.5
	all_power_cost = 0.25

}

iv_monument_cost_8 = {

	potential = {
		ai = no
		calc_true_if = {
		all_owned_province = { 
		has_construction = monument
		}
		amount = 8
		}
		
		NOT = {
		calc_true_if = {
		all_owned_province = { 
		has_construction = monument
		}
		amount = 9
		}
		}

	}
	trigger = {
		calc_true_if = {
		all_owned_province = { 
		has_construction = monument
		}
		amount = 8
		}
		
		NOT = {
		calc_true_if = {
		all_owned_province = { 
		has_construction = monument
		}
		amount = 9
		}
		}
	}
	
	global_tax_modifier = -1.75
	production_efficiency = -1.75
	trade_efficiency = -1.75
	all_power_cost = 0.3

}

iv_monument_cost_9 = {

	potential = {
		ai = no
		calc_true_if = {
		all_owned_province = { 
		has_construction = monument
		}
		amount = 9
		}
		
		NOT = {
		calc_true_if = {
		all_owned_province = { 
		has_construction = monument
		}
		amount = 10
		}
		}

	}
	trigger = {
		calc_true_if = {
		all_owned_province = { 
		has_construction = monument
		}
		amount = 9
		}
		
		NOT = {
		calc_true_if = {
		all_owned_province = { 
		has_construction = monument
		}
		amount = 10
		}
		}
	}
	
	global_tax_modifier = -2.0
	production_efficiency = -2.0
	trade_efficiency = -2.0
	all_power_cost = 0.35

}

iv_monument_cost_10 = {

	potential = {
		ai = no
		calc_true_if = {
		all_owned_province = { 
		has_construction = monument
		}
		amount = 10
		}
	}
	trigger = {
		calc_true_if = {
		all_owned_province = { 
		has_construction = monument
		}
		amount = 10
		}
	}

	global_tax_modifier = -2.5
	production_efficiency = -2.5
	trade_efficiency = -2.5
	all_power_cost = 0.4

}

